<mxfile host="app.diagrams.net" modified="2021-12-14T16:50:22.932Z" agent="5.0 (Windows)" etag="kUXWIuAwWsYzBj9htli-" version="15.8.4" type="gitlab">
  <diagram id="VP58Tw-V0BbjqsCpmzfG" name="Page-1">
    <mxGraphModel dx="722" dy="623" grid="1" gridSize="10" guides="1" tooltips="1" connect="1" arrows="1" fold="1" page="1" pageScale="1" pageWidth="827" pageHeight="1169" math="0" shadow="0">
      <root>
        <mxCell id="0" />
        <mxCell id="1" parent="0" />
        <mxCell id="hzZtNYyq6hFpUjvP-XpT-1" value="" style="rounded=0;whiteSpace=wrap;html=1;" vertex="1" parent="1">
          <mxGeometry x="60" y="40" width="440" height="500" as="geometry" />
        </mxCell>
        <mxCell id="-UUO2ICsWLFt3ub42rk7-1" value="" style="rounded=0;whiteSpace=wrap;html=1;" parent="1" vertex="1">
          <mxGeometry x="80" y="70" width="390" height="270" as="geometry" />
        </mxCell>
        <mxCell id="-UUO2ICsWLFt3ub42rk7-2" value="Text" style="text;html=1;strokeColor=none;fillColor=none;align=center;verticalAlign=middle;whiteSpace=wrap;rounded=0;" parent="1" vertex="1">
          <mxGeometry x="380" y="300" width="60" height="30" as="geometry" />
        </mxCell>
        <mxCell id="-UUO2ICsWLFt3ub42rk7-3" value="&lt;div&gt;VPC&lt;/div&gt;&lt;div&gt;&lt;br&gt;&lt;/div&gt;&lt;div&gt;ipv4 subnet 172.16.0.0/16&lt;br&gt;&lt;/div&gt;" style="text;html=1;strokeColor=none;fillColor=none;spacing=5;spacingTop=-20;whiteSpace=wrap;overflow=hidden;rounded=0;" parent="1" vertex="1">
          <mxGeometry x="190" y="80" width="190" height="60" as="geometry" />
        </mxCell>
        <mxCell id="-UUO2ICsWLFt3ub42rk7-4" value="" style="rounded=1;whiteSpace=wrap;html=1;" parent="1" vertex="1">
          <mxGeometry x="280" y="120" width="190" height="150" as="geometry" />
        </mxCell>
        <mxCell id="-UUO2ICsWLFt3ub42rk7-5" value="&lt;div&gt;public subnet&lt;/div&gt;&lt;div&gt;172.16.0.0/24&lt;br&gt;&lt;/div&gt;" style="text;html=1;strokeColor=none;fillColor=none;align=center;verticalAlign=middle;whiteSpace=wrap;rounded=0;" parent="1" vertex="1">
          <mxGeometry x="305" y="130" width="140" height="40" as="geometry" />
        </mxCell>
        <mxCell id="-UUO2ICsWLFt3ub42rk7-6" value="" style="rounded=1;whiteSpace=wrap;html=1;" parent="1" vertex="1">
          <mxGeometry x="85" y="120" width="190" height="150" as="geometry" />
        </mxCell>
        <mxCell id="-UUO2ICsWLFt3ub42rk7-7" value="&lt;div&gt;private subnet&lt;/div&gt;&lt;div&gt;172.16.1.0/24&lt;br&gt;&lt;/div&gt;" style="text;html=1;strokeColor=none;fillColor=none;align=center;verticalAlign=middle;whiteSpace=wrap;rounded=0;" parent="1" vertex="1">
          <mxGeometry x="120" y="125" width="140" height="40" as="geometry" />
        </mxCell>
        <mxCell id="-UUO2ICsWLFt3ub42rk7-9" value="Internet Gateway" style="rounded=1;whiteSpace=wrap;html=1;" parent="1" vertex="1">
          <mxGeometry x="320" y="310" width="120" height="60" as="geometry" />
        </mxCell>
        <mxCell id="-UUO2ICsWLFt3ub42rk7-11" value="&lt;div&gt;route 0.0.0.0/0 via&lt;/div&gt;&lt;div&gt;Internet Gateway&lt;br&gt;&lt;/div&gt;" style="rounded=0;whiteSpace=wrap;html=1;" parent="1" vertex="1">
          <mxGeometry x="315" y="230" width="120" height="30" as="geometry" />
        </mxCell>
        <mxCell id="-UUO2ICsWLFt3ub42rk7-13" value="" style="ellipse;shape=cloud;whiteSpace=wrap;html=1;" parent="1" vertex="1">
          <mxGeometry x="340" y="430" width="120" height="80" as="geometry" />
        </mxCell>
        <mxCell id="-UUO2ICsWLFt3ub42rk7-14" value="" style="endArrow=none;html=1;rounded=0;" parent="1" source="-UUO2ICsWLFt3ub42rk7-13" edge="1">
          <mxGeometry width="50" height="50" relative="1" as="geometry">
            <mxPoint x="390" y="340" as="sourcePoint" />
            <mxPoint x="380" y="370" as="targetPoint" />
          </mxGeometry>
        </mxCell>
        <mxCell id="-UUO2ICsWLFt3ub42rk7-16" value="" style="endArrow=none;html=1;rounded=0;entryX=0.5;entryY=1;entryDx=0;entryDy=0;" parent="1" target="-UUO2ICsWLFt3ub42rk7-4" edge="1">
          <mxGeometry width="50" height="50" relative="1" as="geometry">
            <mxPoint x="375" y="310" as="sourcePoint" />
            <mxPoint x="425" y="260" as="targetPoint" />
          </mxGeometry>
        </mxCell>
        <mxCell id="-UUO2ICsWLFt3ub42rk7-17" value="nat gateway with e-ip" style="rounded=0;whiteSpace=wrap;html=1;" parent="1" vertex="1">
          <mxGeometry x="290" y="165" width="50" height="60" as="geometry" />
        </mxCell>
        <mxCell id="-UUO2ICsWLFt3ub42rk7-18" value="" style="endArrow=none;html=1;rounded=0;entryX=1;entryY=0.5;entryDx=0;entryDy=0;exitX=0.5;exitY=0;exitDx=0;exitDy=0;edgeStyle=orthogonalEdgeStyle;" parent="1" source="-UUO2ICsWLFt3ub42rk7-11" target="-UUO2ICsWLFt3ub42rk7-17" edge="1">
          <mxGeometry width="50" height="50" relative="1" as="geometry">
            <mxPoint x="390" y="340" as="sourcePoint" />
            <mxPoint x="440" y="290" as="targetPoint" />
          </mxGeometry>
        </mxCell>
        <mxCell id="-UUO2ICsWLFt3ub42rk7-19" value="&lt;div&gt;route 0.0.0.0/0&lt;/div&gt;&lt;div&gt;via Nat Gateway&lt;br&gt;&lt;/div&gt;" style="rounded=0;whiteSpace=wrap;html=1;" parent="1" vertex="1">
          <mxGeometry x="135" y="230" width="110" height="30" as="geometry" />
        </mxCell>
        <mxCell id="-UUO2ICsWLFt3ub42rk7-20" value="" style="endArrow=none;html=1;rounded=0;exitX=1;exitY=0.5;exitDx=0;exitDy=0;entryX=0;entryY=0.5;entryDx=0;entryDy=0;edgeStyle=orthogonalEdgeStyle;" parent="1" source="-UUO2ICsWLFt3ub42rk7-19" target="-UUO2ICsWLFt3ub42rk7-17" edge="1">
          <mxGeometry width="50" height="50" relative="1" as="geometry">
            <mxPoint x="390" y="340" as="sourcePoint" />
            <mxPoint x="440" y="290" as="targetPoint" />
          </mxGeometry>
        </mxCell>
        <mxCell id="hzZtNYyq6hFpUjvP-XpT-2" value="" style="shape=image;html=1;verticalAlign=top;verticalLabelPosition=bottom;labelBackgroundColor=#ffffff;imageAspect=0;aspect=fixed;image=https://cdn2.iconfinder.com/data/icons/emoji-line/32/emoji_32-128.png" vertex="1" parent="1">
          <mxGeometry x="386" y="470" width="28" height="28" as="geometry" />
        </mxCell>
        <mxCell id="hzZtNYyq6hFpUjvP-XpT-3" value="The internet" style="text;html=1;strokeColor=none;fillColor=none;align=center;verticalAlign=middle;whiteSpace=wrap;rounded=0;" vertex="1" parent="1">
          <mxGeometry x="354" y="440" width="106" height="30" as="geometry" />
        </mxCell>
        <mxCell id="hzZtNYyq6hFpUjvP-XpT-4" value="" style="shape=image;html=1;verticalAlign=top;verticalLabelPosition=bottom;labelBackgroundColor=#ffffff;imageAspect=0;aspect=fixed;image=https://cdn4.iconfinder.com/data/icons/free-valentine-s-emoji/64/heart-emoji-emotion-angry-mad-128.png" vertex="1" parent="1">
          <mxGeometry x="360" y="455" width="30" height="30" as="geometry" />
        </mxCell>
        <mxCell id="hzZtNYyq6hFpUjvP-XpT-5" value="" style="shape=image;html=1;verticalAlign=top;verticalLabelPosition=bottom;labelBackgroundColor=#ffffff;imageAspect=0;aspect=fixed;image=https://cdn0.iconfinder.com/data/icons/kameleon-free-pack-rounded/110/Alien-128.png" vertex="1" parent="1">
          <mxGeometry x="421" y="470" width="19" height="19" as="geometry" />
        </mxCell>
        <mxCell id="hzZtNYyq6hFpUjvP-XpT-6" value="" style="shape=image;html=1;verticalAlign=top;verticalLabelPosition=bottom;labelBackgroundColor=#ffffff;imageAspect=0;aspect=fixed;image=https://cdn1.iconfinder.com/data/icons/KDE_Crystal_Diamond_2.5_Classical_Mod/16x16/apps/Ym.png" vertex="1" parent="1">
          <mxGeometry x="400" y="456.5" width="45" height="45" as="geometry" />
        </mxCell>
      </root>
    </mxGraphModel>
  </diagram>
</mxfile>
